5 Aggregation & Grouping – R Basics
…
Some dplyr functions only make sense when used with grouping. One is the n function, which returns the number of rows in a group. For example, one way to find all year and climate event combinations present in the least terns data is to run:

summarize(
  group_by(terns, year, event),
  n()
)

`summarise()` has regrouped the output.
ℹ Summaries were computed grouped by year and event.
ℹ Output is grouped by year.
ℹ Use `summarise(.groups = "drop_last")` to silence this message.
ℹ Use `summarise(.by = c(year, event))` for per-operation grouping
  (`?dplyr::dplyr_by`) instead.

# A tibble: 21 × 3
# Groups:   year [21]
    year event   `n()`
   <int> <chr>   <int>
 1  2000 LA_NINA    29
 2  2004 NEUTRAL    34
 3  2005 NEUTRAL    31
 4  2006 NEUTRAL    33
 5  2007 EL_NINO    37
 6  2008 LA_NINA    38
 7  2009 NEUTRAL    40
 8  2010 EL_NINO    40
 9  2011 LA_NINA    41
10  2012 LA_NINA    41
# ℹ 11 more rows
…
5.3 Mutating Groups

For tasks like standardizing features on a per-group basis, it’s necessary to compute summaries on groups and then map them back to the original observations. Use the mutate function for this rather than summarize. For example, to compute mean total nests for each year:

by_year = group_by(terns, year)
mutate(
  by_year,
  year,
  mean_total_nests = mean(total_nests, na.rm = TRUE),
  # Keep only the mentioned columns, to make the result easier to see.
  .keep = "used"
)

# A tibble: 791 × 3
# Groups:   year [21]
    year total_nests mean_total_nests
   <int>       <int>            <dbl>
 1  2000          15             183.
 2  2000          20             183.
 3  2000         312             183.
 4  2000           3             183.
 5  2000           5             183.
 6  2000           9             183.
 7  2000          32             183.
 8  2000          22             183.
 9  2000          73             183.
10  2000         252             183.
# ℹ 781 more rows
…
